{
    "Restaurants": [
        "Restaurants",
        "Food",
        "Bars",
        "Sandwiches",
        "Coffee & Tea",
        "Fast Food",
        "American (Traditional)",
        "Pizza",
        "Burgers",
        "Breakfast & Brunch",
        "Specialty Food",
        "American (New)",
        "Italian",
        "Mexican",
        "Chinese",
        "Bakeries",
        "Desserts",
        "Cafes",
        "Ice Cream & Frozen Yogurt",
        "Japanese",
        "Chicken Wings",
        "Salad",
        "Seafood",
        "Sushi Bars",
        "Beer",
        "Wine & Spirits",
        "Pubs",
        "Canadian (New)",
        "Mediterranean",
        "Barbeque",
        "Juice Bars & Smoothies",
        "Steakhouses",
        "Indian",
        "Thai",
        "Diners",
        "Vietnamese",
        "Veterinarians",
        "Cocktail Bars",
        "Wine Bars",
        "Vegetarian",
        "Ethnic Food",
        "Greek",
        "French",
        "Korean",
        "Buffets",
        "Comfort Foo",
        "Food Trucks",
        "Vegan",
        "Soup",
        "Donuts",
        "Hot Dogs"
    ],
    "Shopping": [
        "Shopping",
        "Fashion",
        "Grocery",
        "Women's Clothing",
        "Accessories",
        "Delis",
        "Trainers",
        "Convenience Stores",
        "Men's Clothing",
        "Jewelry",
        "Department Stores",
        "Electronics",
        "Furniture Stores",
        "Shoe Stores",
        "Local Flavor",
        "Body Shops",
        "Pet Stores",
        "Eyewear & Opticians",
        "Tobacco Shops",
        "Hardware Stores",
        "Sports Wear",
        "Health Markets",
        "Hobby Shops",
        "Shipping Centers",
        "Gift Shops",
        "Thrift Stores",
        "Vape Shops",
        "Toy Stores",
        "Antiques",
        "Shopping Centers"
    ],
    "Services": [
        "Home Services",
        "Local Services",
        "Event Planning & Services",
        "Professional Services",
        "Auto Repair",
        "Real Estate",
        "Contractors",
        "Financial Services",
        "Pet Services",
        "Caterers",
        "Gas Stations",
        "Real Estate Services",
        "IT Services & Computer Repair",
        "Dry Cleaning & Laundry",
        "Laundry Services",
        "Party & Event Planning",
        "Banks & Credit Unions",
        "Public Services & Government",
        "Plumbing",
        "Home Cleaning",
        "Mobile Phones",
        "Real Estate Agents",
        "Car Wash",
        "Printing Services",
        "Movers",
        "Florists",
        "Lawyers",
        "Transportation",
        "Sewing & Alterations",
        "Property Management",
        "Self Storage",
        "Food Delivery Services",
        "Photographers",
        "Car Rental",
        "Carpet Cleaning",
        "Discount Store",
        "Insurance",
        "Auto Glass Services",
        "Appliances & Repair",
        "Wedding Planning",
        "Interior Design",
        "Mobile Phone Repair",
        "Blow Dry/Out Services",
        "Electronics Repair",
        "Pool Cleaners",
        "Pool & Hot Tub Service"
    ],
    "Beauty": [
        "Beauty & Spas",
        "Hair Salons",
        "Nail Salons",
        "Hair Removal",
        "Skin Care",
        "Day Spas",
        "Massage",
        "Waxing",
        "Cosmetics & Beauty Supply",
        "Barbers",
        "Hair Stylists",
        "Eyelash Service",
        "Massage Therapy",
        "Medical Spas",
        "Makeup Artists",
        "Hair Extensions",
        "Tanning",
        "Tattoo",
        "Men's Hair Salons",
        "Laser Hair Removal"
    ],
    "Healthcare": [
        "Health & Medical",
        "Doctors",
        "Dentists",
        "General Dentistry",
        "Cosmetic Dentists",
        "Medical Centers",
        "Drugstores",
        "Chiropractors",
        "Medical Spas",
        "Eyewear & Opticians",
        "Physical Therapy",
        "Orthodontists",
        "Health Markets",
        "Acupuncture",
        "Pediatric Dentists"
    ],
    "Automotive": [
        "Automotive",
        "Auto Repair",
        "Tires",
        "Oil Change Stations",
        "Car Dealers",
        "Auto Parts & Supplies",
        "Optometrists",
        "Car Wash",
        "Auto Detailing",
        "Transportation"
    ],
    "EducationNEntertainment": [
        "Entertainment",
        "Nightlife",
        "Active Life",
        "Arts & Entertainment",
        "Hotels & Travel",
        "Education",
        "Hotels",
        "Apartments",
        "Venues & Event Spaces",
        "Flowers & Gifts",
        "Arts & Crafts",
        "Specialty Schools",
        "Party & Event Planning",
        "Books",
        "Music & Video",
        "Mobile Phones",
        "Performing Arts",
        "Music Venues",
        "Parks",
        "Dance Clubs",
        "Art Galleries",
        "Preschools"
    ],
    "Home": [
        "Home",
        "Home & Garden",
        "Pets",
        "Home Decor",
        "Furniture Stores",
        "Pet Groomers",
        "Heating & Air Conditioning/HVAC",
        "Home Cleaning",
        "Kitchen & Bath",
        "Interior Design"
    ],
    "Sport": [
        "Sport",
        "Fitness & Instruction",
        "Gyms",
        "Sports Bars",
        "Sporting Goods",
        "Yoga",
        "Sports Wear",
        "Weight Loss Centers",
        "Sports Clubs"
    ]
}