,test_rmse,test_mae,fit_time,test_time
0,1.2850191517814138,1.026909562939651,372.4266245365143,9.133150339126587
1,1.2855131003941758,1.0270212126437128,371.18587470054626,9.935165166854858
2,1.2847646748693766,1.0262086360898934,373.4678955078125,12.801400661468506
3,1.2845296092109801,1.025967639775068,373.29610562324524,13.299941778182983
4,1.284221196557029,1.0261723471695061,372.170250415802,9.683422565460205
5,1.2841762090915452,1.025825699542051,398.16291427612305,12.509115219116211
6,1.2859943065017223,1.0277645218456741,365.5833423137665,9.05270528793335
7,1.2847162744304628,1.0260994398689913,365.14640498161316,7.138656854629517
8,1.2830769460608014,1.025252411694373,366.40799927711487,10.34035062789917
9,1.2845962124525714,1.0260545328835242,372.91307854652405,11.342931985855103
